*------------------------------------------------------------------------------------------
* Simulated Volume information
*------------------------------------------------------------------------------------------
vol:                          15007     12943
numlayers:						1
stopAtinterface:				0
*------------------------------------------------------------------------------------------
* Dislocation information
*------------------------------------------------------------------------------------------

1
Euler ZXZ Angles:
    2.3561944901923448        1.9106332362490186       -2.3561944901923448  
anisotropy:								0
thickness:								17719
MU:										45.D9
NU:										0.33
MOBILITYns:								5.d-6
MOBILITYs:								5.d-6
*------------------------------------------------------------------------------------------
* Numerical Procedure
*------------------------------------------------------------------------------------------
ILOOP_TIME:								10000000
DTIME_MAX_MIN:							1.0D-10 1.0D-11
MAX_QUAD:								16
NPOINT_I:								4
MAX_NODE:								1000
MAX_PLANE:								1000
MAX_NEIGHBOR:							2000
dpMaxAveLength:							1000.d0
nbox1:									5
nbox2:									5
nbox3:									5
dcrit:									20
iArr:									1
*------------------------------------------------------------------------------------------
*B.C. Load =1 Strain rate imposed, 2 stress rate imposed 
*------------------------------------------------------------------------------------------
Load:										1
*Applied Stress
 0.d0    0.d0  0.d0
 0.d0    0.d0  0.d0
 0.d0    0.d0  0.d0
*Applied Strain rate
   0.d0     204.125  -204.125     
   204.125  408.250   0.d0
  -204.125  0.d0     -408.250     
*Delta stress
 0.d0    0.d0   0.d0
 0.d0    0.d0   0.d0
 0.d0    0.d0   0.d0
*------------------------------------------------------------------------------------------
* Crystal properties
*__________________________________________________________________________________________
1
*Elastic stiffness of single crystal [MPa]
  168400.   121400.    121400.     0.0     0.0     0.0
  121400.    168400.    121400.     0.0     0.0     0.0
  121400.    121400.   168400.      0.0     0.0     0.0
     0.0     0.0     0.0     75600.    0.0     0.0
     0.0     0.0     0.0     0.0      75600.   0.0
     0.0     0.0     0.0     0.0     0.0     75600.
*Lattice information (1 FCC; 2 HCP; 3 BCC)
crystaltype:							1
Latticeparmeter:						3.634D-10
3.21 3.21 5.21
90. 90. 120.
* CRSS (MPa)
nslip:			3
basal:			0.
prismatic:		0.
Pyramidal:		0.
*------------------------------------------------------------------------------------------
*Defect Properies
*------------------------------------------------------------------------------------------
ndef:			2
24.28 20.18 15.14 0. 0. 0.
-9.08 -0.66 -2.81 0. 0. 0.
*------------------------------------------------------------------------------------------
* Options(1: Block closed loops, 2: account for anisotropy, 3:overlap, 4:Reebox)
*------------------------------------------------------------------------------------------
loopblocker:							0
reebox:									10
iObstacle:								0
iInertial:								0
iCrossslip:								0
CheckNeiBur:							1
logInteraction:						1
iconOrnew:								1
fullyperiodic:							0
damage:									0
iInterface:								0
finiteBox:								0
*------------------------------------------------------------------------------------------
* FEM: #FE elements/layers, #IntStress and IntStrains boxes (nboxFe), #disp nodes
* iFEM options (0: No fem, 1: parallel fem mumps, 2: serial fem)
*------------------------------------------------------------------------------------------
iFEM:										0
nElmtFe:									1 1 1
nboxFe:									1
DispNodes:								3 3 3
*------------------------------------------------------------------------------------------
* Outputs
*------------------------------------------------------------------------------------------
iOutFreq:								1000
iPastFreq:								1000
ioutFe:									100000
iXRD:										0
iDebugMode:								2
*------------------------------------------------------------------------------------------
* Latent coefficients (0: none, 1: Glissile, 2: Hirth, 3: Lomer, 4: Collinear)
*------------------------------------------------------------------------------------------
iLatentCoef:							2
iRelaxation:							1
iRelaxSteps:							10000
